simulation/qsim/MIPS.msim.vcd
$comment
	File created using the following command:
		vcd file MIPS.msim.vcd -direction
$end
$date
	Fri Oct 25 10:22:46 2019
$end
$version
	ModelSim Version 10.5b
$end
$timescale
	1ps
$end

$scope module mips_vhd_vec_tst $end
$var wire 1 ! clk $end
$var wire 1 " ula_instr $end
$var wire 1 # ula_out_teste [31] $end
$var wire 1 $ ula_out_teste [30] $end
$var wire 1 % ula_out_teste [29] $end
$var wire 1 & ula_out_teste [28] $end
$var wire 1 ' ula_out_teste [27] $end
$var wire 1 ( ula_out_teste [26] $end
$var wire 1 ) ula_out_teste [25] $end
$var wire 1 * ula_out_teste [24] $end
$var wire 1 + ula_out_teste [23] $end
$var wire 1 , ula_out_teste [22] $end
$var wire 1 - ula_out_teste [21] $end
$var wire 1 . ula_out_teste [20] $end
$var wire 1 / ula_out_teste [19] $end
$var wire 1 0 ula_out_teste [18] $end
$var wire 1 1 ula_out_teste [17] $end
$var wire 1 2 ula_out_teste [16] $end
$var wire 1 3 ula_out_teste [15] $end
$var wire 1 4 ula_out_teste [14] $end
$var wire 1 5 ula_out_teste [13] $end
$var wire 1 6 ula_out_teste [12] $end
$var wire 1 7 ula_out_teste [11] $end
$var wire 1 8 ula_out_teste [10] $end
$var wire 1 9 ula_out_teste [9] $end
$var wire 1 : ula_out_teste [8] $end
$var wire 1 ; ula_out_teste [7] $end
$var wire 1 < ula_out_teste [6] $end
$var wire 1 = ula_out_teste [5] $end
$var wire 1 > ula_out_teste [4] $end
$var wire 1 ? ula_out_teste [3] $end
$var wire 1 @ ula_out_teste [2] $end
$var wire 1 A ula_out_teste [1] $end
$var wire 1 B ula_out_teste [0] $end
$var wire 1 C we_uc $end

$scope module i1 $end
$var wire 1 D gnd $end
$var wire 1 E vcc $end
$var wire 1 F unknown $end
$var wire 1 G devoe $end
$var wire 1 H devclrn $end
$var wire 1 I devpor $end
$var wire 1 J ww_devoe $end
$var wire 1 K ww_devclrn $end
$var wire 1 L ww_devpor $end
$var wire 1 M ww_clk $end
$var wire 1 N ww_we_uc $end
$var wire 1 O ww_ula_instr $end
$var wire 1 P ww_ula_out_teste [31] $end
$var wire 1 Q ww_ula_out_teste [30] $end
$var wire 1 R ww_ula_out_teste [29] $end
$var wire 1 S ww_ula_out_teste [28] $end
$var wire 1 T ww_ula_out_teste [27] $end
$var wire 1 U ww_ula_out_teste [26] $end
$var wire 1 V ww_ula_out_teste [25] $end
$var wire 1 W ww_ula_out_teste [24] $end
$var wire 1 X ww_ula_out_teste [23] $end
$var wire 1 Y ww_ula_out_teste [22] $end
$var wire 1 Z ww_ula_out_teste [21] $end
$var wire 1 [ ww_ula_out_teste [20] $end
$var wire 1 \ ww_ula_out_teste [19] $end
$var wire 1 ] ww_ula_out_teste [18] $end
$var wire 1 ^ ww_ula_out_teste [17] $end
$var wire 1 _ ww_ula_out_teste [16] $end
$var wire 1 ` ww_ula_out_teste [15] $end
$var wire 1 a ww_ula_out_teste [14] $end
$var wire 1 b ww_ula_out_teste [13] $end
$var wire 1 c ww_ula_out_teste [12] $end
$var wire 1 d ww_ula_out_teste [11] $end
$var wire 1 e ww_ula_out_teste [10] $end
$var wire 1 f ww_ula_out_teste [9] $end
$var wire 1 g ww_ula_out_teste [8] $end
$var wire 1 h ww_ula_out_teste [7] $end
$var wire 1 i ww_ula_out_teste [6] $end
$var wire 1 j ww_ula_out_teste [5] $end
$var wire 1 k ww_ula_out_teste [4] $end
$var wire 1 l ww_ula_out_teste [3] $end
$var wire 1 m ww_ula_out_teste [2] $end
$var wire 1 n ww_ula_out_teste [1] $end
$var wire 1 o ww_ula_out_teste [0] $end
$var wire 1 p \ula_out_teste[0]~output_o\ $end
$var wire 1 q \ula_out_teste[1]~output_o\ $end
$var wire 1 r \ula_out_teste[2]~output_o\ $end
$var wire 1 s \ula_out_teste[3]~output_o\ $end
$var wire 1 t \ula_out_teste[4]~output_o\ $end
$var wire 1 u \ula_out_teste[5]~output_o\ $end
$var wire 1 v \ula_out_teste[6]~output_o\ $end
$var wire 1 w \ula_out_teste[7]~output_o\ $end
$var wire 1 x \ula_out_teste[8]~output_o\ $end
$var wire 1 y \ula_out_teste[9]~output_o\ $end
$var wire 1 z \ula_out_teste[10]~output_o\ $end
$var wire 1 { \ula_out_teste[11]~output_o\ $end
$var wire 1 | \ula_out_teste[12]~output_o\ $end
$var wire 1 } \ula_out_teste[13]~output_o\ $end
$var wire 1 ~ \ula_out_teste[14]~output_o\ $end
$var wire 1 !! \ula_out_teste[15]~output_o\ $end
$var wire 1 "! \ula_out_teste[16]~output_o\ $end
$var wire 1 #! \ula_out_teste[17]~output_o\ $end
$var wire 1 $! \ula_out_teste[18]~output_o\ $end
$var wire 1 %! \ula_out_teste[19]~output_o\ $end
$var wire 1 &! \ula_out_teste[20]~output_o\ $end
$var wire 1 '! \ula_out_teste[21]~output_o\ $end
$var wire 1 (! \ula_out_teste[22]~output_o\ $end
$var wire 1 )! \ula_out_teste[23]~output_o\ $end
$var wire 1 *! \ula_out_teste[24]~output_o\ $end
$var wire 1 +! \ula_out_teste[25]~output_o\ $end
$var wire 1 ,! \ula_out_teste[26]~output_o\ $end
$var wire 1 -! \ula_out_teste[27]~output_o\ $end
$var wire 1 .! \ula_out_teste[28]~output_o\ $end
$var wire 1 /! \ula_out_teste[29]~output_o\ $end
$var wire 1 0! \ula_out_teste[30]~output_o\ $end
$var wire 1 1! \ula_out_teste[31]~output_o\ $end
$var wire 1 2! \clk~input_o\ $end
$var wire 1 3! \we_uc~input_o\ $end
$var wire 1 4! \pc|pc_o[2]~15_combout\ $end
$var wire 1 5! \pc|pc_o[3]~5_combout\ $end
$var wire 1 6! \pc|pc_o[3]~6\ $end
$var wire 1 7! \pc|pc_o[4]~7_combout\ $end
$var wire 1 8! \pc|pc_o[4]~8\ $end
$var wire 1 9! \pc|pc_o[5]~9_combout\ $end
$var wire 1 :! \pc|pc_o[5]~10\ $end
$var wire 1 ;! \pc|pc_o[6]~11_combout\ $end
$var wire 1 <! \pc|pc_o[6]~12\ $end
$var wire 1 =! \pc|pc_o[7]~13_combout\ $end
$var wire 1 >! \rom|memROM~0_combout\ $end
$var wire 1 ?! \BancoDeRegistradores|registrador~1084_combout\ $end
$var wire 1 @! \BancoDeRegistradores|registrador~38_q\ $end
$var wire 1 A! \ula_instr~input_o\ $end
$var wire 1 B! \ula|Add0~56_combout\ $end
$var wire 1 C! \BancoDeRegistradores|registrador~1085_combout\ $end
$var wire 1 D! \BancoDeRegistradores|registrador~390_q\ $end
$var wire 1 E! \ula|Add0~158_combout\ $end
$var wire 1 F! \ula|Add0~57_combout\ $end
$var wire 1 G! \BancoDeRegistradores|registrador~1086_combout\ $end
$var wire 1 H! \BancoDeRegistradores|registrador~326_q\ $end
$var wire 1 I! \BancoDeRegistradores|saidaA[0]~0_combout\ $end
$var wire 1 J! \ula|Add0~59_cout\ $end
$var wire 1 K! \ula|Add0~60_combout\ $end
$var wire 1 L! \BancoDeRegistradores|registrador~1062_combout\ $end
$var wire 1 M! \BancoDeRegistradores|registrador~1087_combout\ $end
$var wire 1 N! \BancoDeRegistradores|registrador~391_q\ $end
$var wire 1 O! \rom|memROM~1_combout\ $end
$var wire 1 P! \rom|memROM~2_combout\ $end
$var wire 1 Q! \rom|memROM~3_combout\ $end
$var wire 1 R! \ula|Add0~62_combout\ $end
$var wire 1 S! \BancoDeRegistradores|registrador~39_q\ $end
$var wire 1 T! \ula|Add0~63_combout\ $end
$var wire 1 U! \ula|Add0~64_combout\ $end
$var wire 1 V! \BancoDeRegistradores|registrador~327_q\ $end
$var wire 1 W! \BancoDeRegistradores|saidaA[1]~1_combout\ $end
$var wire 1 X! \ula|Add0~61\ $end
$var wire 1 Y! \ula|Add0~65_combout\ $end
$var wire 1 Z! \BancoDeRegistradores|registrador~392_q\ $end
$var wire 1 [! \ula|Add0~67_combout\ $end
$var wire 1 \! \ula|Add0~68_combout\ $end
$var wire 1 ]! \BancoDeRegistradores|registrador~1088_combout\ $end
$var wire 1 ^! \BancoDeRegistradores|registrador~328_q\ $end
$var wire 1 _! \BancoDeRegistradores|saidaA[2]~2_combout\ $end
$var wire 1 `! \ula|Add0~66\ $end
$var wire 1 a! \ula|Add0~69_combout\ $end
$var wire 1 b! \BancoDeRegistradores|registrador~393_q\ $end
$var wire 1 c! \BancoDeRegistradores|registrador~1063_combout\ $end
$var wire 1 d! \ula|Add0~137_combout\ $end
$var wire 1 e! \BancoDeRegistradores|registrador~329_q\ $end
$var wire 1 f! \BancoDeRegistradores|saidaA[3]~3_combout\ $end
$var wire 1 g! \ula|Add0~70\ $end
$var wire 1 h! \ula|Add0~71_combout\ $end
$var wire 1 i! \BancoDeRegistradores|registrador~394_q\ $end
$var wire 1 j! \BancoDeRegistradores|registrador~1064_combout\ $end
$var wire 1 k! \ula|Add0~138_combout\ $end
$var wire 1 l! \BancoDeRegistradores|registrador~330_q\ $end
$var wire 1 m! \BancoDeRegistradores|saidaA[4]~4_combout\ $end
$var wire 1 n! \ula|Add0~72\ $end
$var wire 1 o! \ula|Add0~73_combout\ $end
$var wire 1 p! \BancoDeRegistradores|registrador~395_q\ $end
$var wire 1 q! \BancoDeRegistradores|registrador~1065_combout\ $end
$var wire 1 r! \ula|Add0~139_combout\ $end
$var wire 1 s! \BancoDeRegistradores|registrador~331_q\ $end
$var wire 1 t! \BancoDeRegistradores|saidaA[5]~5_combout\ $end
$var wire 1 u! \ula|Add0~74\ $end
$var wire 1 v! \ula|Add0~75_combout\ $end
$var wire 1 w! \BancoDeRegistradores|registrador~396_q\ $end
$var wire 1 x! \BancoDeRegistradores|registrador~1066_combout\ $end
$var wire 1 y! \ula|Add0~140_combout\ $end
$var wire 1 z! \BancoDeRegistradores|registrador~332_q\ $end
$var wire 1 {! \BancoDeRegistradores|saidaA[6]~6_combout\ $end
$var wire 1 |! \ula|Add0~76\ $end
$var wire 1 }! \ula|Add0~77_combout\ $end
$var wire 1 ~! \BancoDeRegistradores|registrador~397_q\ $end
$var wire 1 !" \BancoDeRegistradores|registrador~1067_combout\ $end
$var wire 1 "" \ula|Add0~141_combout\ $end
$var wire 1 #" \BancoDeRegistradores|registrador~333_q\ $end
$var wire 1 $" \BancoDeRegistradores|saidaA[7]~7_combout\ $end
$var wire 1 %" \ula|Add0~78\ $end
$var wire 1 &" \ula|Add0~79_combout\ $end
$var wire 1 '" \BancoDeRegistradores|registrador~398_q\ $end
$var wire 1 (" \BancoDeRegistradores|registrador~1068_combout\ $end
$var wire 1 )" \ula|Add0~142_combout\ $end
$var wire 1 *" \BancoDeRegistradores|registrador~334_q\ $end
$var wire 1 +" \BancoDeRegistradores|saidaA[8]~8_combout\ $end
$var wire 1 ," \ula|Add0~80\ $end
$var wire 1 -" \ula|Add0~81_combout\ $end
$var wire 1 ." \BancoDeRegistradores|registrador~399_q\ $end
$var wire 1 /" \BancoDeRegistradores|registrador~1069_combout\ $end
$var wire 1 0" \ula|Add0~143_combout\ $end
$var wire 1 1" \BancoDeRegistradores|registrador~335_q\ $end
$var wire 1 2" \BancoDeRegistradores|saidaA[9]~9_combout\ $end
$var wire 1 3" \ula|Add0~82\ $end
$var wire 1 4" \ula|Add0~83_combout\ $end
$var wire 1 5" \BancoDeRegistradores|registrador~400_q\ $end
$var wire 1 6" \BancoDeRegistradores|registrador~1070_combout\ $end
$var wire 1 7" \ula|Add0~144_combout\ $end
$var wire 1 8" \BancoDeRegistradores|registrador~336_q\ $end
$var wire 1 9" \BancoDeRegistradores|saidaA[10]~10_combout\ $end
$var wire 1 :" \ula|Add0~84\ $end
$var wire 1 ;" \ula|Add0~85_combout\ $end
$var wire 1 <" \BancoDeRegistradores|registrador~401_q\ $end
$var wire 1 =" \BancoDeRegistradores|registrador~1071_combout\ $end
$var wire 1 >" \ula|Add0~145_combout\ $end
$var wire 1 ?" \BancoDeRegistradores|registrador~337_q\ $end
$var wire 1 @" \BancoDeRegistradores|saidaA[11]~11_combout\ $end
$var wire 1 A" \ula|Add0~86\ $end
$var wire 1 B" \ula|Add0~87_combout\ $end
$var wire 1 C" \BancoDeRegistradores|registrador~402_q\ $end
$var wire 1 D" \BancoDeRegistradores|registrador~1072_combout\ $end
$var wire 1 E" \ula|Add0~146_combout\ $end
$var wire 1 F" \BancoDeRegistradores|registrador~338_q\ $end
$var wire 1 G" \BancoDeRegistradores|saidaA[12]~12_combout\ $end
$var wire 1 H" \ula|Add0~88\ $end
$var wire 1 I" \ula|Add0~89_combout\ $end
$var wire 1 J" \BancoDeRegistradores|registrador~403_q\ $end
$var wire 1 K" \BancoDeRegistradores|registrador~1073_combout\ $end
$var wire 1 L" \ula|Add0~147_combout\ $end
$var wire 1 M" \BancoDeRegistradores|registrador~339_q\ $end
$var wire 1 N" \BancoDeRegistradores|saidaA[13]~13_combout\ $end
$var wire 1 O" \ula|Add0~90\ $end
$var wire 1 P" \ula|Add0~91_combout\ $end
$var wire 1 Q" \BancoDeRegistradores|registrador~404_q\ $end
$var wire 1 R" \BancoDeRegistradores|registrador~1074_combout\ $end
$var wire 1 S" \ula|Add0~148_combout\ $end
$var wire 1 T" \BancoDeRegistradores|registrador~340_q\ $end
$var wire 1 U" \BancoDeRegistradores|saidaA[14]~14_combout\ $end
$var wire 1 V" \ula|Add0~92\ $end
$var wire 1 W" \ula|Add0~93_combout\ $end
$var wire 1 X" \BancoDeRegistradores|registrador~405_q\ $end
$var wire 1 Y" \BancoDeRegistradores|registrador~1075_combout\ $end
$var wire 1 Z" \ula|Add0~149_combout\ $end
$var wire 1 [" \BancoDeRegistradores|registrador~341_q\ $end
$var wire 1 \" \BancoDeRegistradores|saidaA[15]~15_combout\ $end
$var wire 1 ]" \ula|Add0~94\ $end
$var wire 1 ^" \ula|Add0~95_combout\ $end
$var wire 1 _" \BancoDeRegistradores|registrador~406_q\ $end
$var wire 1 `" \BancoDeRegistradores|registrador~1076_combout\ $end
$var wire 1 a" \ula|Add0~150_combout\ $end
$var wire 1 b" \BancoDeRegistradores|registrador~342_q\ $end
$var wire 1 c" \BancoDeRegistradores|saidaA[16]~16_combout\ $end
$var wire 1 d" \ula|Add0~96\ $end
$var wire 1 e" \ula|Add0~97_combout\ $end
$var wire 1 f" \BancoDeRegistradores|registrador~407_q\ $end
$var wire 1 g" \BancoDeRegistradores|registrador~1077_combout\ $end
$var wire 1 h" \ula|Add0~151_combout\ $end
$var wire 1 i" \BancoDeRegistradores|registrador~343_q\ $end
$var wire 1 j" \BancoDeRegistradores|saidaA[17]~17_combout\ $end
$var wire 1 k" \ula|Add0~98\ $end
$var wire 1 l" \ula|Add0~99_combout\ $end
$var wire 1 m" \BancoDeRegistradores|registrador~408_q\ $end
$var wire 1 n" \BancoDeRegistradores|registrador~1078_combout\ $end
$var wire 1 o" \ula|Add0~152_combout\ $end
$var wire 1 p" \BancoDeRegistradores|registrador~344_q\ $end
$var wire 1 q" \BancoDeRegistradores|saidaA[18]~18_combout\ $end
$var wire 1 r" \ula|Add0~100\ $end
$var wire 1 s" \ula|Add0~101_combout\ $end
$var wire 1 t" \BancoDeRegistradores|registrador~409_q\ $end
$var wire 1 u" \BancoDeRegistradores|registrador~1079_combout\ $end
$var wire 1 v" \ula|Add0~153_combout\ $end
$var wire 1 w" \BancoDeRegistradores|registrador~345_q\ $end
$var wire 1 x" \BancoDeRegistradores|saidaA[19]~19_combout\ $end
$var wire 1 y" \ula|Add0~102\ $end
$var wire 1 z" \ula|Add0~103_combout\ $end
$var wire 1 {" \BancoDeRegistradores|registrador~410_q\ $end
$var wire 1 |" \BancoDeRegistradores|registrador~1080_combout\ $end
$var wire 1 }" \ula|Add0~154_combout\ $end
$var wire 1 ~" \BancoDeRegistradores|registrador~346_q\ $end
$var wire 1 !# \BancoDeRegistradores|saidaA[20]~20_combout\ $end
$var wire 1 "# \ula|Add0~104\ $end
$var wire 1 ## \ula|Add0~105_combout\ $end
$var wire 1 $# \BancoDeRegistradores|registrador~411_q\ $end
$var wire 1 %# \BancoDeRegistradores|registrador~1081_combout\ $end
$var wire 1 &# \ula|Add0~155_combout\ $end
$var wire 1 '# \BancoDeRegistradores|registrador~347_q\ $end
$var wire 1 (# \BancoDeRegistradores|saidaA[21]~21_combout\ $end
$var wire 1 )# \ula|Add0~106\ $end
$var wire 1 *# \ula|Add0~107_combout\ $end
$var wire 1 +# \BancoDeRegistradores|registrador~412_q\ $end
$var wire 1 ,# \BancoDeRegistradores|registrador~1082_combout\ $end
$var wire 1 -# \ula|Add0~156_combout\ $end
$var wire 1 .# \BancoDeRegistradores|registrador~348_q\ $end
$var wire 1 /# \BancoDeRegistradores|saidaA[22]~22_combout\ $end
$var wire 1 0# \ula|Add0~108\ $end
$var wire 1 1# \ula|Add0~109_combout\ $end
$var wire 1 2# \BancoDeRegistradores|registrador~413_q\ $end
$var wire 1 3# \BancoDeRegistradores|registrador~1083_combout\ $end
$var wire 1 4# \ula|Add0~157_combout\ $end
$var wire 1 5# \BancoDeRegistradores|registrador~349_q\ $end
$var wire 1 6# \BancoDeRegistradores|saidaA[23]~23_combout\ $end
$var wire 1 7# \ula|Add0~110\ $end
$var wire 1 8# \ula|Add0~111_combout\ $end
$var wire 1 9# \BancoDeRegistradores|registrador~414_q\ $end
$var wire 1 :# \ula|Add0~113_combout\ $end
$var wire 1 ;# \BancoDeRegistradores|registrador~350_q\ $end
$var wire 1 <# \BancoDeRegistradores|saidaA[24]~24_combout\ $end
$var wire 1 =# \ula|Add0~112\ $end
$var wire 1 ># \ula|Add0~114_combout\ $end
$var wire 1 ?# \BancoDeRegistradores|registrador~415_q\ $end
$var wire 1 @# \ula|Add0~116_combout\ $end
$var wire 1 A# \BancoDeRegistradores|registrador~351_q\ $end
$var wire 1 B# \BancoDeRegistradores|saidaA[25]~25_combout\ $end
$var wire 1 C# \ula|Add0~115\ $end
$var wire 1 D# \ula|Add0~117_combout\ $end
$var wire 1 E# \BancoDeRegistradores|registrador~416_q\ $end
$var wire 1 F# \ula|Add0~119_combout\ $end
$var wire 1 G# \BancoDeRegistradores|registrador~352_q\ $end
$var wire 1 H# \BancoDeRegistradores|saidaA[26]~26_combout\ $end
$var wire 1 I# \ula|Add0~118\ $end
$var wire 1 J# \ula|Add0~120_combout\ $end
$var wire 1 K# \BancoDeRegistradores|registrador~417_q\ $end
$var wire 1 L# \ula|Add0~122_combout\ $end
$var wire 1 M# \BancoDeRegistradores|registrador~353_q\ $end
$var wire 1 N# \BancoDeRegistradores|saidaA[27]~27_combout\ $end
$var wire 1 O# \ula|Add0~121\ $end
$var wire 1 P# \ula|Add0~123_combout\ $end
$var wire 1 Q# \BancoDeRegistradores|registrador~418_q\ $end
$var wire 1 R# \ula|Add0~125_combout\ $end
$var wire 1 S# \BancoDeRegistradores|registrador~354_q\ $end
$var wire 1 T# \BancoDeRegistradores|saidaA[28]~28_combout\ $end
$var wire 1 U# \ula|Add0~124\ $end
$var wire 1 V# \ula|Add0~126_combout\ $end
$var wire 1 W# \BancoDeRegistradores|registrador~419_q\ $end
$var wire 1 X# \ula|Add0~128_combout\ $end
$var wire 1 Y# \BancoDeRegistradores|registrador~355_q\ $end
$var wire 1 Z# \BancoDeRegistradores|saidaA[29]~29_combout\ $end
$var wire 1 [# \ula|Add0~127\ $end
$var wire 1 \# \ula|Add0~129_combout\ $end
$var wire 1 ]# \BancoDeRegistradores|registrador~420_q\ $end
$var wire 1 ^# \ula|Add0~131_combout\ $end
$var wire 1 _# \BancoDeRegistradores|registrador~356_q\ $end
$var wire 1 `# \BancoDeRegistradores|saidaA[30]~30_combout\ $end
$var wire 1 a# \ula|Add0~130\ $end
$var wire 1 b# \ula|Add0~132_combout\ $end
$var wire 1 c# \BancoDeRegistradores|registrador~421_q\ $end
$var wire 1 d# \ula|Add0~134_combout\ $end
$var wire 1 e# \BancoDeRegistradores|registrador~357_q\ $end
$var wire 1 f# \BancoDeRegistradores|saidaA[31]~31_combout\ $end
$var wire 1 g# \ula|Add0~133\ $end
$var wire 1 h# \ula|Add0~135_combout\ $end
$var wire 1 i# \pc|pc_o\ [31] $end
$var wire 1 j# \pc|pc_o\ [30] $end
$var wire 1 k# \pc|pc_o\ [29] $end
$var wire 1 l# \pc|pc_o\ [28] $end
$var wire 1 m# \pc|pc_o\ [27] $end
$var wire 1 n# \pc|pc_o\ [26] $end
$var wire 1 o# \pc|pc_o\ [25] $end
$var wire 1 p# \pc|pc_o\ [24] $end
$var wire 1 q# \pc|pc_o\ [23] $end
$var wire 1 r# \pc|pc_o\ [22] $end
$var wire 1 s# \pc|pc_o\ [21] $end
$var wire 1 t# \pc|pc_o\ [20] $end
$var wire 1 u# \pc|pc_o\ [19] $end
$var wire 1 v# \pc|pc_o\ [18] $end
$var wire 1 w# \pc|pc_o\ [17] $end
$var wire 1 x# \pc|pc_o\ [16] $end
$var wire 1 y# \pc|pc_o\ [15] $end
$var wire 1 z# \pc|pc_o\ [14] $end
$var wire 1 {# \pc|pc_o\ [13] $end
$var wire 1 |# \pc|pc_o\ [12] $end
$var wire 1 }# \pc|pc_o\ [11] $end
$var wire 1 ~# \pc|pc_o\ [10] $end
$var wire 1 !$ \pc|pc_o\ [9] $end
$var wire 1 "$ \pc|pc_o\ [8] $end
$var wire 1 #$ \pc|pc_o\ [7] $end
$var wire 1 $$ \pc|pc_o\ [6] $end
$var wire 1 %$ \pc|pc_o\ [5] $end
$var wire 1 &$ \pc|pc_o\ [4] $end
$var wire 1 '$ \pc|pc_o\ [3] $end
$var wire 1 ($ \pc|pc_o\ [2] $end
$var wire 1 )$ \pc|pc_o\ [1] $end
$var wire 1 *$ \pc|pc_o\ [0] $end
$upscope $end
$upscope $end
$enddefinitions $end
#0
$dumpvars
1!
0"
1C
0D
1E
xF
1G
1H
1I
1J
1K
1L
1M
1N
0O
1p
0q
1r
0s
0t
0u
0v
0w
0x
0y
0z
0{
0|
0}
0~
0!!
0"!
0#!
0$!
0%!
0&!
0'!
0(!
0)!
0*!
0+!
0,!
0-!
0.!
0/!
00!
01!
12!
13!
14!
05!
06!
07!
18!
09!
0:!
0;!
1<!
0=!
1>!
0?!
0@!
0A!
1B!
0C!
0D!
0E!
0F!
1G!
0H!
1I!
0J!
1K!
0L!
1M!
0N!
1O!
1P!
1Q!
1R!
0S!
1T!
1U!
0V!
1W!
1X!
0Y!
0Z!
1[!
0\!
0]!
0^!
0_!
1`!
1a!
0b!
0c!
0d!
0e!
0f!
1g!
0h!
0i!
0j!
0k!
0l!
0m!
0n!
0o!
0p!
0q!
0r!
0s!
0t!
1u!
0v!
0w!
0x!
0y!
0z!
0{!
0|!
0}!
0~!
0!"
0""
0#"
0$"
1%"
0&"
0'"
0("
0)"
0*"
0+"
0,"
0-"
0."
0/"
00"
01"
02"
13"
04"
05"
06"
07"
08"
09"
0:"
0;"
0<"
0="
0>"
0?"
0@"
1A"
0B"
0C"
0D"
0E"
0F"
0G"
0H"
0I"
0J"
0K"
0L"
0M"
0N"
1O"
0P"
0Q"
0R"
0S"
0T"
0U"
0V"
0W"
0X"
0Y"
0Z"
0["
0\"
1]"
0^"
0_"
0`"
0a"
0b"
0c"
0d"
0e"
0f"
0g"
0h"
0i"
0j"
1k"
0l"
0m"
0n"
0o"
0p"
0q"
0r"
0s"
0t"
0u"
0v"
0w"
0x"
1y"
0z"
0{"
0|"
0}"
0~"
0!#
0"#
0##
0$#
0%#
0&#
0'#
0(#
1)#
0*#
0+#
0,#
0-#
0.#
0/#
00#
01#
02#
03#
04#
05#
06#
17#
08#
09#
0:#
0;#
0<#
0=#
0>#
0?#
0@#
0A#
0B#
1C#
0D#
0E#
0F#
0G#
0H#
0I#
0J#
0K#
0L#
0M#
0N#
1O#
0P#
0Q#
0R#
0S#
0T#
0U#
0V#
0W#
0X#
0Y#
0Z#
1[#
0\#
0]#
0^#
0_#
0`#
0a#
0b#
0c#
0d#
0e#
0f#
1g#
0h#
0P
0Q
0R
0S
0T
0U
0V
0W
0X
0Y
0Z
0[
0\
0]
0^
0_
0`
0a
0b
0c
0d
0e
0f
0g
0h
0i
0j
0k
0l
1m
0n
1o
xi#
xj#
xk#
xl#
xm#
xn#
xo#
xp#
xq#
xr#
xs#
xt#
xu#
xv#
xw#
xx#
xy#
xz#
x{#
x|#
x}#
x~#
x!$
x"$
0#$
0$$
0%$
0&$
0'$
0($
x)$
x*$
0#
0$
0%
0&
0'
0(
0)
0*
0+
0,
0-
0.
0/
00
01
02
03
04
05
06
07
08
09
0:
0;
0<
0=
0>
0?
1@
0A
1B
$end
#10000
0!
0M
02!
#20000
1!
1"
1M
1O
1A!
12!
1($
1H!
1F!
1J!
0R!
1\!
1d!
1k!
1r!
1y!
1""
1)"
10"
17"
1>"
1E"
1L"
1S"
1Z"
1a"
1h"
1o"
1v"
1}"
1&#
1-#
14#
1:#
1@#
1F#
1L#
1R#
1X#
1^#
1d#
1h#
1b#
1\#
1V#
1P#
1J#
1D#
1>#
18#
11#
1*#
1##
1z"
1s"
1l"
1e"
1^"
1W"
1P"
1I"
1B"
1;"
14"
1-"
1&"
1}!
1v!
1o!
1h!
0a!
0g!
0U!
0X!
04!
15!
1C!
1E!
0G!
0O!
0W!
1_!
1a!
0F!
1Y!
0`!
0h!
1n!
1]!
0o!
0u!
0a!
0M!
0K!
0]!
0r
1s
1t
1u
1v
1w
1x
1y
1z
1{
1|
1}
1~
1!!
1"!
1#!
1$!
1%!
1&!
1'!
1(!
1)!
1*!
1+!
1,!
1-!
1.!
1/!
10!
11!
1]!
0v!
1|!
0m
1l
1k
1j
1i
1h
1g
1f
1e
1d
1c
1b
1a
1`
1_
1^
1]
1\
1[
1Z
1Y
1X
1W
1V
1U
1T
1S
1R
1Q
1P
0s
1q
1r
0@
1?
1>
1=
1<
1;
1:
19
18
17
16
15
14
13
12
11
10
1/
1.
1-
1,
1+
1*
1)
1(
1'
1&
1%
1$
1#
0}!
0%"
0l
1n
1m
0p
0r
0t
1A
1@
0?
0&"
1,"
0o
0m
0k
0u
0B
0@
0>
0-"
03"
0j
0v
0=
04"
1:"
0i
0w
0<
0;"
0A"
0h
0x
0;
0B"
1H"
0g
0y
0:
0I"
0O"
0f
0z
09
0P"
1V"
0e
0{
08
0W"
0]"
0d
0|
07
0^"
1d"
0c
0}
06
0e"
0k"
0b
0~
05
0l"
1r"
0a
0!!
04
0s"
0y"
0`
0"!
03
0z"
1"#
0_
0#!
02
0##
0)#
0^
0$!
01
0*#
10#
0]
0%!
00
01#
07#
0\
0&!
0/
08#
1=#
0[
0'!
0.
0>#
0C#
0Z
0(!
0-
0D#
1I#
0Y
0)!
0,
0J#
0O#
0X
0*!
0+
0P#
1U#
0W
0+!
0*
0V#
0[#
0V
0,!
0)
0\#
1a#
0U
0-!
0(
0b#
0g#
0T
0.!
0'
0h#
0S
0/!
0&
0R
00!
0%
0Q
01!
0$
0P
0#
#30000
0!
0M
02!
#40000
1!
0"
1M
0O
0A!
12!
0($
1'$
1F!
0J!
1R!
0\!
0d!
0k!
0r!
0y!
0""
0)"
00"
07"
0>"
0E"
0L"
0S"
0Z"
0a"
0h"
0o"
0v"
0}"
0&#
0-#
04#
0:#
0@#
0F#
0L#
0R#
0X#
0^#
0d#
1h#
1b#
1g#
1\#
0a#
1V#
1[#
1P#
0U#
1J#
1O#
1D#
0I#
1>#
1C#
18#
0=#
11#
17#
1*#
00#
1##
1)#
1z"
0"#
1s"
1y"
1l"
0r"
1e"
1k"
1^"
0d"
1W"
1]"
1P"
0V"
1I"
1O"
1B"
0H"
1;"
1A"
14"
0:"
1-"
13"
1&"
0,"
1}!
1%"
1v!
0|!
1o!
1u!
1h!
0n!
1a!
1g!
1U!
0>!
0Q!
14!
0C!
0E!
1G!
1O!
1W!
0_!
0a!
0F!
0R!
0T!
1?!
0B!
1E!
0G!
0I!
1L!
0O!
0W!
1`!
0h!
0]!
0o!
0v!
0}!
0&"
0-"
04"
0;"
0B"
0I"
0P"
0W"
0^"
0e"
0l"
0s"
0z"
0##
0*#
01#
08#
0>#
0D#
0J#
0P#
0V#
0\#
0b#
0h#
1a!
0Y!
1R!
0U!
1X!
1]!
1r
1s
1t
1u
1v
1w
1x
1y
1z
1{
1|
1}
1~
1!!
1"!
1#!
1$!
1%!
1&!
1'!
1(!
1)!
1*!
1+!
1,!
1-!
1.!
1/!
10!
11!
0`!
1M!
0]!
1m
1l
1k
1j
1i
1h
1g
1f
1e
1d
1c
1b
1a
1`
1_
1^
1]
1\
1[
1Z
1Y
1X
1W
1V
1U
1T
1S
1R
1Q
1P
01!
00!
0/!
0.!
0-!
0,!
0+!
0*!
0)!
0(!
0'!
0&!
0%!
0$!
0#!
0"!
0!!
0~
0}
0|
0{
0z
0y
0x
0w
0v
0u
0t
0s
0r
1@
1?
1>
1=
1<
1;
1:
19
18
17
16
15
14
13
12
11
10
1/
1.
1-
1,
1+
1*
1)
1(
1'
1&
1%
1$
1#
0a!
0P
0Q
0R
0S
0T
0U
0V
0W
0X
0Y
0Z
0[
0\
0]
0^
0_
0`
0a
0b
0c
0d
0e
0f
0g
0h
0i
0j
0k
0l
0m
0q
1r
0@
0?
0>
0=
0<
0;
0:
09
08
07
06
05
04
03
02
01
00
0/
0.
0-
0,
0+
0*
0)
0(
0'
0&
0%
0$
0#
1]!
0n
1m
0A
1@
0r
0m
0@
#50000
0!
0M
02!
#60000
1!
1M
12!
1($
04!
05!
16!
17!
#70000
0!
0M
02!
#80000
1!
1M
12!
0($
0'$
1&$
07!
08!
0P!
1Q!
14!
06!
17!
18!
1T!
0Q!
19!
0T!
09!
#90000
0!
0M
02!
#100000
1!
1M
12!
1($
04!
15!
#110000
0!
0M
02!
#120000
1!
1M
12!
0($
1'$
14!
#130000
0!
0M
02!
